{
	"version": 0,
	"gopm": {
		"enable": false,
		"install": false
	},
	"go_install": true,
	"watch_ext": [
		".ini"
	],
        "watch_ext_static": [".html", ".tpl", ".js", ".css", ".png"],
	"dir_structure": {
		"controllers": "",
		"models": "",
		"others": [
			"conf"
		]
	}
}
